{
    "curso": {
        "nome": "Computação",
        "orgao": "CIC",
        "maxCrSemestre": 30,
        "minCrSemestre": 12,
        "permanenciaMin": 6,
        "permanenciaMax": 16,
        "crFormatura": 214,
        "crModuloLivre": 24,
        "disciplinasFluxo": [
            {
                "nome": "Formação docente em computação",
                "qtnProvas": 0,
                "qntHorasProva": 0,
                "qtnTrabalhos": 2,
                "qntHorasTrabalho": 5,
                "orgao": "CIC",
                "preReqs": [],
                "cr": 4
            },
            {
                "nome": "Organização da educação brasileira",
                "qtnProvas": 1,
                "qntHorasProva": 7,
                "qtnTrabalhos": 1,
                "qntHorasTrabalho": 5,
                "orgao": "PAD",
                "preReqs": [],
                "cr": 4
            },
            {
                "nome": "Algorítmos e programação de computadores",
                "qtnProvas": 3,
                "qntHorasProva": 12,
                "qtnTrabalhos": 4,
                "qntHorasTrabalho": 7,
                "orgao": "CIC",
                "preReqs": [],
                "cr": 6
            },
            {
                "nome": "Calculo 1",
                "qtnProvas": 3,
                "qntHorasProva": 20,
                "qtnTrabalhos": 0,
                "qntHorasTrabalho": 0,
                "orgao": "MAT",
                "preReqs": [],
                "cr": 6
            },
            {
                "nome": "Estrutura de dados",
                "qtnProvas": 3,
                "qntHorasProva": 12,
                "qtnTrabalhos": 5,
                "qntHorasTrabalho": 8,
                "orgao": "CIC",
                "preReqs": [
                    "Algorítmos e programação de computadores"
                ],
                "cr": 4
            },
            {
                "nome": "Psicologia da educação",
                "qtnProvas": 3,
                "qntHorasProva": 3,
                "qtnTrabalhos": 3,
                "qntHorasTrabalho": 3,
                "orgao": "TEF",
                "preReqs": [],
                "cr": 4
            },
            {
                "nome": "Fundamentos teóricos da computação",
                "qtnProvas": 3,
                "qntHorasProva": 3,
                "qtnTrabalhos": 3,
                "qntHorasTrabalho": 3,
                "orgao": "CIC",
                "preReqs": [],
                "cr": 4
            },
            {
                "nome": "Probabilidade e estatística",
                "qtnProvas": 3,
                "qntHorasProva": 3,
                "qtnTrabalhos": 3,
                "qntHorasTrabalho": 3,
                "orgao": "EST",
                "preReqs": [
                    "Calculo 1"
                ],
                "cr": 4
            },
            {
                "nome": "Introdução a algebra linear",
                "qtnProvas": 3,
                "qntHorasProva": 3,
                "qtnTrabalhos": 3,
                "qntHorasTrabalho": 3,
                "orgao": "MAT",
                "preReqs": [],
                "cr": 4
            },
            {
                "nome": "Lógica computacional 1",
                "qtnProvas": 3,
                "qntHorasProva": 3,
                "qtnTrabalhos": 3,
                "qntHorasTrabalho": 3,
                "orgao": "CIC",
                "preReqs": [
                    "Fundamentos teóricos da computação",
                    "Estrutura de dados"
                ],
                "cr": 4
            },
            {
                "nome": "Técnicas de programação 1",
                "qtnProvas": 3,
                "qntHorasProva": 3,
                "qtnTrabalhos": 3,
                "qntHorasTrabalho": 3,
                "orgao": "CIC",
                "preReqs": [
                    "Estrutura de dados"
                ],
                "cr": 4
            },
            {
                "nome": "Métodos de pesquisa na licenciatura em computação",
                "qtnProvas": 3,
                "qntHorasProva": 3,
                "qtnTrabalhos": 3,
                "qntHorasTrabalho": 3,
                "orgao": "CIC",
                "preReqs": [],
                "cr": 2
            },
            {
                "nome": "Calculo 2",
                "qtnProvas": 3,
                "qntHorasProva": 3,
                "qtnTrabalhos": 3,
                "qntHorasTrabalho": 3,
                "orgao": "MAT",
                "preReqs": [
                    "Calculo 1"
                ],
                "cr": 6
            },
            {
                "nome": "Arquitetura de processadores digitais",
                "qtnProvas": 3,
                "qntHorasProva": 3,
                "qtnTrabalhos": 3,
                "qntHorasTrabalho": 3,
                "orgao": "CIC",
                "preReqs": [
                    "Estrutura de dados"
                ],
                "cr": 4
            },
            {
                "nome": "Linguagens de programação",
                "qtnProvas": 3,
                "qntHorasProva": 3,
                "qtnTrabalhos": 3,
                "qntHorasTrabalho": 3,
                "orgao": "CIC",
                "preReqs": [
                    "Estrutura de dados"
                ],
                "cr": 4
            },
            {
                "nome": "Organização de arquivos",
                "qtnProvas": 3,
                "qntHorasProva": 3,
                "qtnTrabalhos": 3,
                "qntHorasTrabalho": 3,
                "orgao": "CIC",
                "preReqs": [
                    [
                        "Estrutura de dados",
                        "Probabilidade e estatística"
                    ]
                ],
                "cr": 4
            },
            {
                "nome": "Banco de dados",
                "qtnProvas": 3,
                "qntHorasProva": 3,
                "qtnTrabalhos": 3,
                "qntHorasTrabalho": 3,
                "orgao": "CIC",
                "preReqs": [
                    "Organização de arquivos"
                ],
                "cr": 4
            },
            {
                "nome": "Produção de material didático",
                "qtnProvas": 3,
                "qntHorasProva": 3,
                "qtnTrabalhos": 3,
                "qntHorasTrabalho": 3,
                "orgao": "CIC",
                "preReqs": [],
                "cr": 5
            },
            {
                "nome": "Supervisão de produção de material didático",
                "qtnProvas": 3,
                "qntHorasProva": 3,
                "qtnTrabalhos": 3,
                "qntHorasTrabalho": 3,
                "orgao": "CIC",
                "preReqs": [],
                "cr": 2
            },
            {
                "nome": "Introdução a sistemas operacionais",
                "qtnProvas": 3,
                "qntHorasProva": 3,
                "qtnTrabalhos": 3,
                "qntHorasTrabalho": 3,
                "orgao": "CIC",
                "preReqs": [
                    "Linguagens de programação"
                ],
                "cr": 4
            },
            {
                "nome": "Projeto interdisciplinar de licenciatura em computação",
                "qtnProvas": 3,
                "qntHorasProva": 3,
                "qtnTrabalhos": 3,
                "qntHorasTrabalho": 3,
                "orgao": "CIC",
                "preReqs": [
                    [
                        "Formação docente em computação",
                        "Estrutura de dados"
                    ]
                ],
                "cr": 4
            },
            {
                "nome": "Didática fundamental",
                "qtnProvas": 3,
                "qntHorasProva": 3,
                "qtnTrabalhos": 3,
                "qntHorasTrabalho": 3,
                "orgao": "MTC",
                "preReqs": [
                    "Fund Desenv e Aprendizagem",
                    "Psicologia da Aprendizagem 1",
                    "Aprendizagem no Ensino",
                    "Desenv Psicológico e Ensino",
                    "Dinâmica Psicossocial Educação",
                    "Perspect do Desenv Humano"
                ],
                "cr": 4
            },
            {
                "nome": "Redes de computadores",
                "qtnProvas": 3,
                "qntHorasProva": 3,
                "qtnTrabalhos": 3,
                "qntHorasTrabalho": 3,
                "orgao": "CIC",
                "preReqs": [
                    "Estrutura de dados"
                ],
                "cr": 4
            },
            {
                "nome": "Projetos e análise de algoritimos",
                "qtnProvas": 3,
                "qntHorasProva": 3,
                "qtnTrabalhos": 3,
                "qntHorasTrabalho": 3,
                "orgao": "CIC",
                "preReqs": [
                    [
                        "Calculo 1",
                        "Técnicas de programação 1"
                    ],[
                        "Calculo 1",
                        "Estrutura de dados"
                    ]
                ],
                "cr": 4
            },
            {
                "nome": "Prática pedagógica em computação 1",
                "qtnProvas": 3,
                "qntHorasProva": 3,
                "qtnTrabalhos": 3,
                "qntHorasTrabalho": 3,
                "orgao": "CIC",
                "preReqs": [
                    [
                        "Didática fundamental",
                        "Proj Interdisc Lic Computação"
                    ]
                ],
                "cr": 6
            },
            {
                "nome": "Surpevisão de prática pedagógica em computação 1",
                "qtnProvas": 3,
                "qntHorasProva": 3,
                "qtnTrabalhos": 3,
                "qntHorasTrabalho": 3,
                "orgao": "CIC",
                "preReqs": [],
                "cr": 2
            },
            {
                "nome": "Segurança computacional",
                "qtnProvas": 3,
                "qntHorasProva": 3,
                "qtnTrabalhos": 3,
                "qntHorasTrabalho": 3,
                "orgao": "CIC",
                "preReqs": [
                    "Redes de computadores",
                    "Transmissão de dados"
                ],
                "cr": 4
            },
            {
                "nome": "Sistemas de informação",
                "qtnProvas": 3,
                "qntHorasProva": 3,
                "qtnTrabalhos": 3,
                "qntHorasTrabalho": 3,
                "orgao": "CIC",
                "preReqs": [
                    "Estrutura de dados",
                    "Banco de dados"
                ],
                "cr": 4
            },
            {
                "nome": "Engenharia de software",
                "qtnProvas": 3,
                "qntHorasProva": 3,
                "qtnTrabalhos": 3,
                "qntHorasTrabalho": 3,
                "orgao": "CIC",
                "preReqs": [
                    "Linguagens de programação",
                    "Técnicas de programação 1"
                ],
                "cr": 4
            },
            {
                "nome": "Produção cientifica na licenciatura em computação",
                "qtnProvas": 3,
                "qntHorasProva": 3,
                "qtnTrabalhos": 3,
                "qntHorasTrabalho": 3,
                "orgao": "CIC",
                "preReqs": [
                    "Projeto de Pesquisa Lic Comput"
                ],
                "cr": 2
            },
            {
                "nome": "Supervisão de prática pedagógica em computação 2",
                "qtnProvas": 3,
                "qntHorasProva": 3,
                "qtnTrabalhos": 3,
                "qntHorasTrabalho": 3,
                "orgao": "CIC",
                "preReqs": [],
                "cr": 2
            },
            {
                "nome": "Prática pedagógica em computação 2",
                "qtnProvas": 3,
                "qntHorasProva": 3,
                "qtnTrabalhos": 3,
                "qntHorasTrabalho": 3,
                "orgao": "CIC",
                "preReqs": [
                    "Prática pedagógica em computação 1"
                ],
                "cr": 6
            },
            {
                "nome": "Informática aplicada a educação",
                "qtnProvas": 3,
                "qntHorasProva": 3,
                "qtnTrabalhos": 3,
                "qntHorasTrabalho": 3,
                "orgao": "CIC",
                "preReqs": [
                    "Linguagens de programação",
                    [
                        "Aprendizagem no Ensino",
                        "Didática Fundamental"
                    ]
                ],
                "cr": 4
            },
            {
                "nome": "Teoria da computação",
                "qtnProvas": 3,
                "qntHorasProva": 3,
                "qtnTrabalhos": 3,
                "qntHorasTrabalho": 3,
                "orgao": "CIC",
                "preReqs": [
                    [
                        "Algebra 1",
                        "Logica 1"
                    ],
                    [
                        "Logica 1",
                        "Teoria dos números 1"
                    ],
                    [
                        "Algebra 1",
                        "Lógica computacional 1"
                    ],
                    [
                        "Lógica computacional 1",
                        "Teoria dos números 1"
                    ],
                    [
                        "Introdução a algebra linear",
                        "Lógica computacional 1"
                    ]
                ],
                "cr": 4
            },
            {
                "nome": "Projeto de pesquisa na licenciatura em computação",
                "qtnProvas": 3,
                "qntHorasProva": 3,
                "qtnTrabalhos": 3,
                "qntHorasTrabalho": 3,
                "orgao": "CIC",
                "preReqs": [
                    "Métodos de pesquisa lic comput"
                ],
                "cr": 2
            },
            {
                "nome": "Estágio supervisionado em licenciatura em computação 1",
                "qtnProvas": 3,
                "qntHorasProva": 3,
                "qtnTrabalhos": 3,
                "qntHorasTrabalho": 3,
                "orgao": "CIC",
                "preReqs": [
                    "Prática pedagógica comput 2"
                ],
                "cr": 7
            },
            {
                "nome": "Supervisão de estágio em licenciatura em computação 1",
                "qtnProvas": 3,
                "qntHorasProva": 3,
                "qtnTrabalhos": 3,
                "qntHorasTrabalho": 3,
                "orgao": "CIC",
                "preReqs": [],
                "cr": 2
            },
            {
                "nome": "Língua de sinais brasileira - básico",
                "qtnProvas": 3,
                "qntHorasProva": 3,
                "qtnTrabalhos": 3,
                "qntHorasTrabalho": 3,
                "orgao": "LIP",
                "preReqs": [],
                "cr": 4
            },
            {
                "nome": "Administração das organizações educativas",
                "qtnProvas": 3,
                "qntHorasProva": 3,
                "qtnTrabalhos": 3,
                "qntHorasTrabalho": 3,
                "orgao": "PAD",
                "preReqs": [],
                "cr": 4
            },
            {
                "nome": "Estágio supervisionado em licenciatura em computação 2",
                "qtnProvas": 3,
                "qntHorasProva": 3,
                "qtnTrabalhos": 3,
                "qntHorasTrabalho": 3,
                "orgao": "CIC",
                "preReqs": [
                    "Estágio supervisionado em licenciatura em computação 1"
                ],
                "cr": 7
            },
            {
                "nome": "Estágio supervisionado em licenciatura em computação 3",
                "qtnProvas": 3,
                "qntHorasProva": 3,
                "qtnTrabalhos": 3,
                "qntHorasTrabalho": 3,
                "orgao": "CIC",
                "preReqs": [
                    "Estágio supervisionado em licenciatura em computação 1"
                ],
                "cr": 2
            },
            {
                "nome": "Estágio supervisionado em licenciatura em computação 3",
                "qtnProvas": 3,
                "qntHorasProva": 3,
                "qtnTrabalhos": 3,
                "qntHorasTrabalho": 3,
                "orgao": "CIC",
                "preReqs": [
                    "Estágio supervisionado em licenciatura em computação 1"
                ],
                "cr": 7
            },
            {
                "nome": "Supervisão de estágio em licenciatura em computação 3",
                "qtnProvas": 3,
                "qntHorasProva": 3,
                "qtnTrabalhos": 3,
                "qntHorasTrabalho": 3,
                "orgao": "CIC",
                "preReqs": [],
                "cr": 2
            },
            {
                "nome": "Tópicos avançados em computadores",
                "qtnProvas": 3,
                "qntHorasProva": 3,
                "qtnTrabalhos": 3,
                "qntHorasTrabalho": 3,
                "orgao": "CIC",
                "preReqs": [],
                "cr": 4
            }
        ]
    }
}